%YAML 1.1
%TAG !u! tag:unity3d.com,2011:
--- !u!221 &22100000
AnimatorOverrideController:
  m_ObjectHideFlags: 0
  m_PrefabParentObject: {fileID: 0}
  m_PrefabInternal: {fileID: 0}
  m_Name: Person2
  m_Controller: {fileID: 9100000, guid: 7980470341d55a44c9a2901c564b826a, type: 2}
  m_Clips:
  - m_OriginalClip: {fileID: 7400000, guid: e92162d05c3635b4b9d3edae2f5267ec, type: 2}
    m_OverrideClip: {fileID: 7400000, guid: b99c78d569aa9844e8ca8bd18dd3e97a, type: 2}
  - m_OriginalClip: {fileID: 7400000, guid: ef5c3cd27350e2c4783fa837d7250635, type: 2}
    m_OverrideClip: {fileID: 7400000, guid: 6bfebd49eefd39b49bfe665ea3f1a235, type: 2}
  - m_OriginalClip: {fileID: 7400000, guid: 1c3764c0beec6004499f42b10e0fbb29, type: 2}
    m_OverrideClip: {fileID: 7400000, guid: 429c840440a68bc4c89bd0c7620c3c9a, type: 2}
  - m_OriginalClip: {fileID: 7400000, guid: 3f7d75cb62b87584f874e14f8a6adaad, type: 2}
    m_OverrideClip: {fileID: 7400000, guid: ddb025034395cc241abe7943eec02c74, type: 2}
  - m_OriginalClip: {fileID: 7400000, guid: 6e221ab4fcb1e304f9dae9670d05445b, type: 2}
    m_OverrideClip: {fileID: 7400000, guid: 6e221ab4fcb1e304f9dae9670d05445b, type: 2}
